ecgout.csv

X,CH1,Start,Increment,
Sequence,Volt,-3.000000e+00,5.000000e-03
0,1.60e-03,
1,-1.00e-01,
2,-1.02e-01,
3,8.00e-04,
4,-1.02e-01,
5,-9.92e-02,
6,-1.02e-01,
7,-9.92e-02,
8,-1.02e-01,
9,7.76e-02,
10,7.44e-02,
11,6.64e-02,
12,6.88e-02,
13,6.00e-02,
14,6.40e-02,
15,5.76e-02,
16,6.08e-02,
17,5.36e-02,
18,5.68e-02,
19,4.88e-02,
20,5.28e-02,
21,4.48e-02,
22,4.96e-02,
23,4.08e-02,
24,4.56e-02,
25,4.08e-02,
26,4.24e-02,
27,3.60e-02,
28,3.92e-02,
29,3.44e-02,
30,3.60e-02,
31,2.88e-02,
32,3.36e-02,
33,2.88e-02,
34,3.28e-02,
35,2.72e-02,
36,2.24e-02,
37,2.96e-02,
38,2.72e-02,
39,2.24e-02,
40,2.64e-02,
41,2.08e-02,
42,2.40e-02,
43,1.76e-02,
44,1.68e-02,
45,2.32e-02,
46,1.44e-02,
47,2.08e-02,
48,1.92e-02,
49,1.44e-02,
50,1.20e-02,
51,1.76e-02,
52,1.60e-02,
53,9.60e-03,
54,1.76e-02,
55,1.04e-02,
56,1.44e-02,
57,9.60e-03,
58,1.36e-02,
59,1.04e-02,
60,1.20e-02,
61,7.20e-03,
62,1.12e-02,
63,4.80e-03,
64,4.80e-03,
65,1.12e-02,
66,6.40e-03,
67,1.12e-02,
68,9.60e-03,
69,6.40e-03,
70,3.20e-03,
71,9.60e-03,
72,8.80e-03,
73,4.80e-03,
74,7.20e-03,
75,4.00e-03,
76,7.20e-03,
77,3.20e-03,
78,6.40e-03,
79,3.20e-03,
80,6.40e-03,
81,1.60e-03,
82,5.60e-03,
83,2.40e-03,
84,7.20e-03,
85,2.40e-03,
86,8.00e-04,
87,6.40e-03,
88,5.60e-03,
89,2.40e-03,
90,4.80e-03,
91,-1.60e-03,
92,4.80e-03,
93,-3.20e-03,
94,1.60e-03,
95,4.80e-03,
96,-2.40e-03,
97,5.60e-03,
98,4.00e-03,
99,8.00e-04,
100,4.80e-03,
101,0.00e+00,
102,4.00e-03,
103,-1.60e-03,
104,4.00e-03,
105,-1.60e-03,
106,-3.20e-03,
107,4.00e-03,
108,3.20e-03,
109,-2.40e-03,
110,3.20e-03,
111,-4.00e-03,
112,2.40e-03,
113,-2.40e-03,
114,3.20e-03,
115,-2.40e-03,
116,-5.60e-03,
117,2.40e-03,
118,2.40e-03,
119,-1.60e-03,
120,-1.60e-03,
121,2.40e-03,
122,2.40e-03,
123,-4.80e-03,
124,-2.40e-03,
125,2.40e-03,
126,-4.80e-03,
127,2.40e-03,
128,1.60e-03,
129,-8.00e-04,
130,1.60e-03,
131,-3.20e-03,
132,1.60e-03,
133,-1.60e-03,
134,-8.00e-04,
135,1.60e-03,
136,-4.00e-03,
137,4.00e-03,
138,1.60e-03,
139,-4.00e-03,
140,-5.60e-03,
141,5.60e-03,
142,3.20e-03,
143,6.40e-03,
144,4.00e-03,
145,7.20e-03,
146,7.20e-03,
147,2.40e-03,
148,4.80e-03,
149,8.00e-03,
150,4.00e-03,
151,8.80e-03,
152,0.00e+00,
153,7.20e-03,
154,8.00e-04,
155,7.20e-03,
156,-1.60e-03,
157,6.40e-03,
158,7.20e-03,
159,-8.00e-04,
160,2.40e-03,
161,7.20e-03,
162,5.60e-03,
163,8.00e-04,
164,4.80e-03,
165,-1.60e-03,
166,5.60e-03,
167,-8.00e-04,
168,4.80e-03,
169,1.60e-03,
170,0.00e+00,
171,4.80e-03,
172,4.80e-03,
173,8.00e-04,
174,0.00e+00,
175,4.00e-03,
176,-1.60e-03,
177,4.00e-03,
178,4.00e-03,
179,0.00e+00,
180,5.60e-03,
181,0.00e+00,
182,4.00e-03,
183,0.00e+00,
184,4.80e-03,
185,-8.00e-04,
186,-4.00e-03,
187,3.20e-03,
188,2.40e-03,
189,0.00e+00,
190,2.40e-03,
191,-3.20e-03,
192,2.40e-03,
193,-1.60e-03,
194,-1.60e-03,
195,2.40e-03,
196,-2.40e-03,
197,2.40e-03,
198,2.40e-03,
199,-8.00e-04,
200,-3.20e-03,
201,2.40e-03,
202,5.60e-03,
203,-6.40e-03,
204,-6.40e-03,
205,-1.60e-03,
206,-1.36e-02,
207,-3.20e-03,
208,-3.20e-03,
209,-8.80e-03,
210,-1.36e-02,
211,-2.40e-03,
212,-2.40e-03,
213,-5.60e-03,
214,-6.40e-03,
215,-1.60e-03,
216,-2.40e-03,
217,-6.40e-03,
218,-1.60e-03,
219,-4.00e-03,
220,-8.00e-04,
221,-7.20e-03,
222,-8.00e-04,
223,-4.80e-03,
224,-6.40e-03,
225,-8.00e-04,
226,-8.00e-04,
227,-8.00e-03,
228,-3.20e-03,
229,0.00e+00,
230,8.00e-04,
231,-4.80e-03,
232,0.00e+00,
233,-4.80e-03,
234,8.00e-04,
235,-4.00e-03,
236,0.00e+00,
237,-5.60e-03,
238,0.00e+00,
239,-3.20e-03,
240,-5.60e-03,
241,0.00e+00,
242,0.00e+00,
243,-5.60e-03,
244,-3.20e-03,
245,0.00e+00,
246,1.60e-03,
247,-3.20e-03,
248,-2.40e-03,
249,1.60e-03,
250,-4.80e-03,
251,8.00e-04,
252,8.00e-04,
253,-2.40e-03,
254,-2.40e-03,
255,8.00e-04,
256,1.60e-03,
257,-6.40e-03,
258,8.00e-04,
259,-3.20e-03,
260,-3.20e-03,
261,8.00e-04,
262,8.00e-04,
263,-2.40e-03,
264,-1.60e-03,
265,2.40e-03,
266,-5.60e-03,
267,1.60e-03,
268,8.00e-04,
269,-1.60e-03,
270,1.60e-03,
271,-3.20e-03,
272,8.00e-04,
273,-5.60e-03,
274,-4.80e-03,
275,2.40e-03,
276,-4.80e-03,
277,2.40e-03,
278,1.60e-03,
279,-1.60e-03,
280,-1.60e-03,
281,1.60e-03,
282,8.00e-04,
283,-4.80e-03,
284,-4.80e-03,
285,1.60e-03,
286,-5.60e-03,
287,1.60e-03,
288,8.00e-04,
289,-4.00e-03,
290,8.00e-04,
291,-5.60e-03,
292,1.60e-03,
293,-2.40e-03,
294,1.60e-03,
295,-7.20e-03,
296,3.20e-03,
297,-4.00e-03,
298,8.00e-04,
299,-1.60e-03,
300,-2.40e-03,
301,2.40e-03,
302,1.60e-03,
303,-4.80e-03,
304,-1.60e-03,
305,8.00e-04,
306,2.40e-03,
307,-3.20e-03,
308,1.60e-03,
309,-2.40e-03,
310,1.60e-03,
311,-2.40e-03,
312,8.00e-04,
313,-2.40e-03,
314,-6.40e-03,
315,1.60e-03,
316,8.00e-04,
317,-7.20e-03,
318,-3.20e-03,
319,-6.40e-03,
320,-1.12e-02,
321,-2.40e-03,
322,-3.20e-03,
323,-7.20e-03,
324,-9.60e-03,
325,-2.40e-03,
326,-8.00e-03,
327,-8.00e-04,
328,-1.60e-03,
329,-4.80e-03,
330,-4.80e-03,
331,-8.00e-04,
332,-4.00e-03,
333,0.00e+00,
334,-4.80e-03,
335,1.60e-03,
336,-2.40e-03,
337,3.20e-03,
338,2.40e-03,
339,-8.00e-04,
340,-4.80e-03,
341,2.40e-03,
342,1.60e-03,
343,-1.60e-03,
344,-8.00e-04,
345,3.20e-03,
346,2.40e-03,
347,-2.40e-03,
348,1.60e-03,
349,-1.60e-03,
350,-2.40e-03,
351,1.60e-03,
352,1.60e-03,
353,-2.40e-03,
354,2.40e-03,
355,-8.00e-04,
356,1.60e-03,
357,-5.60e-03,
358,1.60e-03,
359,-2.40e-03,
360,1.60e-03,
361,-5.60e-03,
362,1.60e-03,
363,-1.60e-03,
364,-3.20e-03,
365,1.60e-03,
366,-4.00e-03,
367,1.60e-03,
368,1.60e-03,
369,-1.60e-03,
370,1.60e-03,
371,-2.40e-03,
372,8.00e-04,
373,-3.20e-03,
374,-5.60e-03,
375,1.60e-03,
376,1.60e-03,
377,-4.00e-03,
378,1.60e-03,
379,-1.60e-03,
380,8.00e-04,
381,-3.20e-03,
382,1.60e-03,
383,-5.60e-03,
384,-4.80e-03,
385,1.60e-03,
386,-4.00e-03,
387,2.40e-03,
388,8.00e-04,
389,-1.02e-01,
390,-1.02e-01,
391,-1.00e-01,
392,-1.02e-01,
393,-9.92e-02,
394,-1.02e-01,
395,7.44e-02,
396,7.52e-02,
397,6.72e-02,
398,6.96e-02,
399,6.32e-02,
400,6.48e-02,
401,5.92e-02,
402,6.16e-02,
403,5.52e-02,
404,5.76e-02,
405,5.12e-02,
406,5.28e-02,
407,4.72e-02,
408,4.96e-02,
409,4.40e-02,
410,4.56e-02,
411,4.08e-02,
412,4.32e-02,
413,3.76e-02,
414,3.92e-02,
415,3.52e-02,
416,3.68e-02,
417,2.96e-02,
418,3.44e-02,
419,2.88e-02,
420,3.12e-02,
421,2.48e-02,
422,2.96e-02,
423,2.24e-02,
424,2.16e-02,
425,2.80e-02,
426,1.76e-02,
427,2.56e-02,
428,2.40e-02,
429,1.60e-02,
430,1.76e-02,
431,2.40e-02,
432,2.08e-02,
433,1.68e-02,
434,1.92e-02,
435,1.44e-02,
436,1.76e-02,
437,1.12e-02,
438,1.68e-02,
439,9.60e-03,
440,1.52e-02,
441,1.28e-02,
442,1.44e-02,
443,9.60e-03,
444,1.44e-02,
445,7.20e-03,
446,1.28e-02,
447,8.00e-03,
448,1.20e-02,
449,4.00e-03,
450,4.00e-03,
451,1.12e-02,
452,1.04e-02,
453,5.60e-03,
454,1.12e-02,
455,5.60e-03,
456,8.80e-03,
457,4.00e-03,
458,8.80e-03,
459,3.20e-03,
460,4.00e-03,
461,8.00e-03,
462,8.00e-03,
463,3.20e-03,
464,3.20e-03,
465,7.20e-03,
466,1.60e-03,
467,7.20e-03,
468,6.40e-03,
469,3.20e-03,
470,8.00e-03,
471,8.00e-04,
472,5.60e-03,
473,8.00e-04,
474,5.60e-03,
475,8.00e-04,
476,4.80e-03,
477,-1.60e-03,
478,4.80e-03,
479,1.60e-03,
480,0.00e+00,
481,4.80e-03,
482,4.00e-03,
483,-1.60e-03,
484,-1.60e-03,
485,6.40e-03,
486,4.80e-03,
487,0.00e+00,
488,4.00e-03,
489,0.00e+00,
490,4.80e-03,
491,-2.40e-03,
492,-1.60e-03,
493,3.20e-03,
494,4.80e-03,
495,-1.60e-03,
496,-8.00e-04,
497,4.00e-03,
498,3.20e-03,
499,-8.00e-04,
500,-4.00e-03,
501,2.40e-03,
502,2.40e-03,
503,-2.40e-03,
504,-1.60e-03,
505,2.40e-03,
506,3.20e-03,
507,-6.40e-03,
508,2.40e-03,
509,-8.00e-04,
510,3.20e-03,
511,-4.80e-03,
512,1.60e-03,
513,-5.60e-03,
514,4.80e-03,
515,-1.60e-03,
516,1.60e-03,
517,-4.00e-03,
518,1.60e-03,
519,-4.00e-03,
520,-2.40e-03,
521,3.20e-03,
522,1.60e-03,
523,-8.00e-04,
524,1.60e-03,
525,-4.00e-03,
526,-4.00e-03,
527,4.00e-03,
528,5.60e-03,
529,1.60e-03,
530,3.20e-03,
531,9.60e-03,
532,6.40e-03,
533,4.00e-03,
534,7.20e-03,
535,2.40e-03,
536,8.00e-03,
537,0.00e+00,
538,6.40e-03,
539,4.00e-03,
540,6.40e-03,
541,8.00e-04,
542,6.40e-03,
543,3.20e-03,
544,5.60e-03,
545,1.60e-03,
546,6.40e-03,
547,-3.20e-03,
548,5.60e-03,
549,1.60e-03,
550,0.00e+00,
551,5.60e-03,
552,4.80e-03,
553,0.00e+00,
554,-8.00e-04,
555,4.80e-03,
556,4.80e-03,
557,-1.60e-03,
558,4.80e-03,
559,0.00e+00,
560,0.00e+00,
561,6.40e-03,
562,4.00e-03,
563,-4.80e-03,
564,8.00e-04,
565,4.00e-03,
566,-3.20e-03,
567,4.80e-03,
568,4.00e-03,
569,0.00e+00,
570,-2.40e-03,
571,4.80e-03,
572,3.20e-03,
573,-1.60e-03,
574,-4.00e-03,
575,3.20e-03,
576,-1.60e-03,
577,3.20e-03,
578,2.40e-03,
579,-1.60e-03,
580,2.40e-03,
581,-2.40e-03,
582,2.40e-03,
583,-1.60e-03,
584,4.00e-03,
585,-3.20e-03,
586,2.40e-03,
587,-5.60e-03,
588,5.60e-03,
589,-7.20e-03,
590,-8.00e-03,
591,-8.00e-04,
592,-2.40e-03,
593,-1.28e-02,
594,-1.68e-02,
595,-2.40e-03,
596,-2.40e-03,
597,-1.04e-02,
598,-1.60e-03,
599,-4.80e-03,
600,-8.00e-03,
601,-1.60e-03,
602,-1.60e-03,
603,-6.40e-03,
604,-8.00e-04,
605,-6.40e-03,
606,-8.00e-04,
607,-9.60e-03,
608,-8.00e-04,
609,-4.00e-03,
610,-6.40e-03,
611,0.00e+00,
612,-8.00e-04,
613,-4.80e-03,
614,-6.40e-03,
615,0.00e+00,
616,-8.80e-03,
617,0.00e+00,
618,0.00e+00,
619,-3.20e-03,
620,-3.20e-03,
621,8.00e-04,
622,8.00e-04,
623,-4.80e-03,
624,-3.20e-03,
625,8.00e-04,
626,0.00e+00,
627,-9.60e-03,
628,0.00e+00,
629,-3.20e-03,
630,-9.60e-03,
631,1.60e-03,
632,8.00e-04,
633,-4.00e-03,
634,-5.60e-03,
635,8.00e-04,
636,1.60e-03,
637,-5.60e-03,
638,-2.40e-03,
639,1.60e-03,
640,-4.00e-03,
641,8.00e-04,
642,8.00e-04,
643,-4.00e-03,
644,8.00e-04,
645,-4.00e-03,
646,8.00e-04,
647,-4.00e-03,
648,8.00e-04,
649,-2.40e-03,
650,-5.60e-03,
651,1.60e-03,
652,-3.20e-03,
653,1.60e-03,
654,-3.20e-03,
655,8.00e-04,
656,8.00e-04,
657,-6.40e-03,
658,8.00e-04,
659,-3.20e-03,
660,8.00e-04,
661,-5.60e-03,
662,8.00e-04,
663,-2.40e-03,
664,-2.40e-03,
665,1.60e-03,
666,-4.00e-03,
667,1.60e-03,
668,8.00e-04,
669,-1.60e-03,
670,1.60e-03,
671,-2.40e-03,
672,1.60e-03,
673,-3.20e-03,
674,-4.80e-03,
675,2.40e-03,
676,8.00e-04,
677,-4.80e-03,
678,1.60e-03,
679,-1.60e-03,
680,1.60e-03,
681,-3.20e-03,
682,-2.40e-03,
683,1.60e-03,
684,-1.60e-03,
685,8.00e-04,
686,-2.40e-03,
687,2.40e-03,
688,1.60e-03,
689,-4.80e-03,
690,-1.60e-03,
691,2.40e-03,
692,1.60e-03,
693,-1.60e-03,
694,-2.40e-03,
695,1.60e-03,
696,-4.80e-03,
697,1.60e-03,
698,1.60e-03,
699,-1.60e-03,
700,-3.20e-03,
701,1.60e-03,
702,1.60e-03,
703,-8.80e-03,
704,-2.40e-03,
705,-1.28e-02,
706,-1.12e-02,
707,-3.20e-03,
708,-3.20e-03,
709,-8.00e-03,
710,-8.80e-03,
711,-2.40e-03,
712,-2.40e-03,
713,-5.60e-03,
714,-8.80e-03,
715,-1.60e-03,
716,-2.40e-03,
717,-7.20e-03,
718,-4.00e-03,
719,-8.00e-04,
720,-3.20e-03,
721,8.00e-04,
722,1.60e-03,
723,-3.20e-03,
724,0.00e+00,
725,2.40e-03,
726,1.60e-03,
727,-1.60e-03,
728,2.40e-03,
729,-8.00e-04,
730,1.60e-03,
731,-4.80e-03,
732,1.60e-03,
733,-1.60e-03,
734,1.60e-03,
735,-1.60e-03,
736,2.40e-03,
737,-3.20e-03,
738,1.60e-03,
739,-1.60e-03,
740,2.40e-03,
741,-3.20e-03,
742,1.60e-03,
743,-1.60e-03,
744,1.60e-03,
745,-3.20e-03,
746,-4.00e-03,
747,2.40e-03,
748,1.60e-03,
749,-1.60e-03,
750,-6.40e-03,
751,4.80e-03,
752,1.60e-03,
753,-5.60e-03,
754,-2.40e-03,
755,1.60e-03,
756,-3.20e-03,
757,1.60e-03,
758,-3.20e-03,
759,1.60e-03,
760,-5.60e-03,
761,1.60e-03,
762,8.00e-04,
763,-2.40e-03,
764,-3.20e-03,
765,1.60e-03,
766,2.40e-03,
767,-4.00e-03,
768,1.60e-03,
769,-1.60e-03,
770,-2.40e-03,
771,1.60e-03,
772,-1.60e-03,
773,1.60e-03,
774,1.60e-03,
775,-1.02e-01,
776,-1.02e-01,
777,-1.12e-02,
778,-1.02e-01,
779,-9.92e-02,
780,-1.02e-01,
781,-9.76e-02,
782,-1.02e-01,
783,7.60e-02,
784,7.12e-02,
785,6.24e-02,
786,6.64e-02,
787,5.52e-02,
788,6.32e-02,
789,5.68e-02,
790,6.08e-02,
791,5.28e-02,
792,5.52e-02,
793,4.80e-02,
794,5.12e-02,
795,4.56e-02,
796,4.72e-02,
797,3.84e-02,
798,4.48e-02,
799,3.84e-02,
800,4.08e-02,
801,3.60e-02,
802,3.84e-02,
803,3.12e-02,
804,3.76e-02,
805,3.12e-02,
806,3.28e-02,
807,2.56e-02,
808,3.04e-02,
809,2.56e-02,
810,2.80e-02,
811,2.24e-02,
812,2.72e-02,
813,2.08e-02,
814,1.68e-02,
815,2.48e-02,
816,2.40e-02,
817,1.60e-02,
818,2.08e-02,
819,1.60e-02,
820,2.16e-02,
821,1.68e-02,
822,1.92e-02,
823,1.44e-02,
824,1.36e-02,
825,1.84e-02,
826,1.60e-02,
827,8.00e-03,
828,1.52e-02,
829,9.60e-03,
830,1.36e-02,
831,8.80e-03,
832,1.36e-02,
833,8.80e-03,
834,1.20e-02,
835,8.80e-03,
836,1.20e-02,
837,6.40e-03,
838,1.12e-02,
839,8.00e-03,
840,1.12e-02,
841,6.40e-03,
842,9.60e-03,
843,4.80e-03,
844,3.20e-03,
845,1.04e-02,
846,8.00e-03,
847,4.00e-03,
848,7.20e-03,
849,4.80e-03,
850,7.20e-03,
851,4.00e-03,
852,6.40e-03,
853,8.00e-04,
854,8.00e-04,
855,6.40e-03,
856,5.60e-03,
857,-2.40e-03,
858,5.60e-03,
859,1.60e-03,
860,4.80e-03,
861,2.40e-03,
862,4.80e-03,
863,1.60e-03,
864,7.20e-03,
865,8.00e-04,
866,4.80e-03,
867,0.00e+00,
868,4.80e-03,
869,8.00e-04,
870,4.80e-03,
871,0.00e+00,
872,4.00e-03,
873,-8.00e-04,
874,4.00e-03,
875,0.00e+00,
876,3.20e-03,
877,-2.40e-03,
878,4.00e-03,
879,-8.00e-04,
880,-8.00e-04,
881,3.20e-03,
882,2.40e-03,
883,-2.40e-03,
884,4.80e-03,
885,0.00e+00,
886,5.60e-03,
887,-3.20e-03,
888,2.40e-03,
889,0.00e+00,
890,-1.60e-03,
891,3.20e-03,
892,2.40e-03,
893,-1.60e-03,
894,4.00e-03,
895,-1.60e-03,
896,1.60e-03,
897,-3.20e-03,
898,2.40e-03,
899,-8.00e-04,
900,2.40e-03,
901,-4.00e-03,
902,1.60e-03,
903,-5.60e-03,
904,1.60e-03,
905,-3.20e-03,
906,-7.20e-03,
907,3.20e-03,
908,1.60e-03,
909,-1.60e-03,
910,-4.80e-03,
911,3.20e-03,
912,1.60e-03,
913,-2.40e-03,
914,-1.60e-03,
915,6.40e-03,
916,8.00e-04,
917,7.20e-03,
918,7.20e-03,
919,4.80e-03,
920,7.20e-03,
921,1.60e-03,
922,7.20e-03,
923,3.20e-03,
924,2.40e-03,
925,7.20e-03,
926,2.40e-03,
927,8.00e-03,
928,6.40e-03,
929,4.00e-03,
930,6.40e-03,
931,1.60e-03,
932,6.40e-03,
933,8.00e-04,
934,7.20e-03,
935,0.00e+00,
936,6.40e-03,
937,-8.00e-04,
938,5.60e-03,
939,2.40e-03,
940,-2.40e-03,
941,4.80e-03,
942,4.80e-03,
943,-8.00e-04,
944,-8.00e-04,
945,4.80e-03,
946,5.60e-03,
947,-2.40e-03,
948,4.00e-03,
949,8.00e-04,
950,4.00e-03,
951,-8.00e-04,
952,4.00e-03,
953,-8.00e-04,
954,-8.00e-04,
955,4.00e-03,
956,-4.00e-03,
957,4.80e-03,
958,4.00e-03,
959,0.00e+00,
960,2.40e-03,
961,-2.40e-03,
962,2.40e-03,
963,-1.60e-03,
964,3.20e-03,
965,-8.00e-04,
966,4.00e-03,
967,-4.80e-03,
968,2.40e-03,
969,-3.20e-03,
970,-1.60e-03,
971,2.40e-03,
972,2.40e-03,
973,-1.60e-03,
974,-4.80e-03,
975,5.60e-03,
976,4.80e-03,
977,-9.60e-03,
978,-1.60e-03,
979,-6.40e-03,
980,-1.36e-02,
981,-2.40e-03,
982,-2.40e-03,
983,-9.60e-03,
984,-9.60e-03,
985,-2.40e-03,
986,-2.40e-03,
987,-9.60e-03,
988,-1.60e-03,
989,-4.80e-03,
990,-5.60e-03,
991,-8.00e-04,
992,-8.00e-04,
993,-4.80e-03,
994,-4.80e-03,
995,-8.00e-04,
996,-1.60e-03,
997,-5.60e-03,
998,0.00e+00,
999,-4.00e-03,
1000,-5.60e-03,
1001,-8.00e-04,
1002,0.00e+00,
1003,-4.00e-03,
1004,-6.40e-03,
1005,0.00e+00,
1006,0.00e+00,
1007,-9.60e-03,
1008,0.00e+00,
1009,-5.60e-03,
1010,-6.40e-03,
1011,8.00e-04,
1012,0.00e+00,
1013,-3.20e-03,
1014,-4.80e-03,
1015,8.00e-04,
1016,0.00e+00,
1017,-6.40e-03,
1018,8.00e-04,
1019,-4.80e-03,
1020,-3.20e-03,
1021,8.00e-04,
1022,8.00e-04,
1023,-3.20e-03,
1024,-2.40e-03,
1025,8.00e-04,
1026,8.00e-04,
1027,-4.00e-03,
1028,8.00e-04,
1029,-3.20e-03,
1030,-5.60e-03,
1031,8.00e-04,
1032,8.00e-04,
1033,-4.00e-03,
1034,-5.60e-03,
1035,8.00e-04,
1036,8.00e-04,
1037,-4.00e-03,
1038,8.00e-04,
1039,-4.00e-03,
1040,8.00e-04,
1041,-4.80e-03,
1042,8.00e-04,
1043,-5.60e-03,
1044,1.60e-03,
1045,-4.00e-03,
1046,-4.80e-03,
1047,1.60e-03,
1048,8.00e-04,
1049,-2.40e-03,
1050,8.00e-04,
1051,-4.80e-03,
1052,8.00e-04,
1053,-4.00e-03,
1054,-6.40e-03,
1055,1.60e-03,
1056,1.60e-03,
1057,-5.60e-03,
1058,1.60e-03,
1059,-3.20e-03,
1060,-3.20e-03,
1061,1.60e-03,
1062,8.00e-04,
1063,-2.40e-03,
1064,8.00e-04,
1065,-2.40e-03,
1066,8.00e-04,
1067,-4.00e-03,
1068,8.00e-04,
1069,-1.60e-03,
1070,-5.60e-03,
1071,1.60e-03,
1072,8.00e-04,
1073,-2.40e-03,
1074,2.40e-03,
1075,-3.20e-03,
1076,2.40e-03,
1077,-5.60e-03,
1078,8.00e-04,
1079,-8.00e-04,
1080,2.40e-03,
1081,-5.60e-03,
1082,1.60e-03,
1083,-1.60e-03,
1084,-6.40e-03,
1085,8.00e-04,
1086,1.60e-03,
1087,-4.00e-03,
1088,1.60e-03,
1089,-4.80e-03,
1090,8.00e-04,
1091,-1.20e-02,
1092,-3.20e-03,
1093,-8.00e-03,
1094,-9.60e-03,
1095,-3.20e-03,
1096,-3.20e-03,
1097,-8.00e-03,
1098,-2.40e-03,
1099,-5.60e-03,
1100,-1.04e-02,
1101,-1.60e-03,
1102,-2.40e-03,
1103,-5.60e-03,
1104,-8.00e-04,
1105,-5.60e-03,
1106,-6.40e-03,
1107,8.00e-04,
1108,-1.60e-03,
1109,1.60e-03,
1110,-1.60e-03,
1111,2.40e-03,
1112,1.60e-03,
1113,-8.00e-04,
1114,1.60e-03,
1115,-4.00e-03,
1116,-4.80e-03,
1117,3.20e-03,
1118,1.60e-03,
1119,-8.00e-04,
1120,-1.60e-03,
1121,2.40e-03,
1122,1.60e-03,
1123,-3.20e-03,
1124,-8.00e-04,
1125,2.40e-03,
1126,-2.40e-03,
1127,2.40e-03,
1128,1.60e-03,
1129,-1.60e-03,
1130,1.60e-03,
1131,-5.60e-03,
1132,1.60e-03,
1133,-1.60e-03,
1134,2.40e-03,
1135,-6.40e-03,
1136,-3.20e-03,
1137,2.40e-03,
1138,1.60e-03,
1139,-8.00e-04,
1140,1.60e-03,
1141,-5.60e-03,
1142,1.60e-03,
1143,-3.20e-03,
1144,-1.60e-03,
1145,3.20e-03,
1146,1.60e-03,
1147,-5.60e-03,
1148,1.60e-03,
1149,-1.60e-03,
1150,-5.60e-03,
1151,1.60e-03,
1152,-3.20e-03,
1153,2.40e-03,
1154,1.60e-03,
1155,-1.60e-03,
1156,8.00e-04,
1157,-2.40e-03,
1158,1.60e-03,
1159,-1.60e-03,
1160,3.20e-03,
1161,-1.02e-01,
1162,-1.02e-01,
1163,8.00e-04,
1164,-1.02e-01,
1165,-1.00e-01,
1166,-1.02e-01,
1167,-9.84e-02,
1168,-1.02e-01,
1169,7.52e-02,
1170,7.28e-02,
1171,6.40e-02,
1172,6.80e-02,
1173,6.08e-02,
1174,6.32e-02,
1175,5.52e-02,
1176,6.00e-02,
1177,5.20e-02,
1178,5.52e-02,
1179,4.96e-02,
1180,5.12e-02,
1181,4.32e-02,
1182,4.80e-02,
1183,4.16e-02,
1184,4.48e-02,
1185,4.00e-02,
1186,4.16e-02,
1187,3.60e-02,
1188,3.84e-02,
1189,3.36e-02,
1190,3.60e-02,
1191,2.56e-02,
1192,3.28e-02,
1193,2.72e-02,
1194,3.20e-02,
1195,2.72e-02,
1196,2.88e-02,
1197,2.32e-02,
1198,2.72e-02,
1199,2.24e-02,
