lnb.csv

X,CH1,CH3,Start,Increment,
Sequence,Volt,Volt,-3.000000e+00,5.000000e-03
0,7.00e+00,6.40e+00,
1,6.80e+00,6.00e+00,
2,6.80e+00,6.40e+00,
3,7.00e+00,6.00e+00,
4,7.00e+00,6.40e+00,
5,6.80e+00,6.00e+00,
6,7.00e+00,6.00e+00,
7,6.80e+00,6.40e+00,
8,7.00e+00,6.40e+00,
9,6.80e+00,6.00e+00,
10,7.00e+00,6.40e+00,
11,6.80e+00,6.00e+00,
12,7.00e+00,6.40e+00,
13,6.80e+00,6.00e+00,
14,7.00e+00,6.40e+00,
15,6.80e+00,6.00e+00,
16,7.00e+00,6.40e+00,
17,6.80e+00,6.00e+00,
18,7.00e+00,6.40e+00,
19,6.80e+00,-4.00e-01,
20,7.00e+00,-4.00e-01,
21,6.80e+00,0.00e+00,
22,7.00e+00,-4.00e-01,
23,6.60e+00,0.00e+00,
24,6.80e+00,0.00e+00,
25,7.00e+00,-4.00e-01,
26,7.00e+00,0.00e+00,
27,6.80e+00,-4.00e-01,
28,7.00e+00,0.00e+00,
29,6.80e+00,-4.00e-01,
30,7.00e+00,-4.00e-01,
31,6.80e+00,0.00e+00,
32,7.00e+00,0.00e+00,
33,6.80e+00,-4.00e-01,
34,7.00e+00,0.00e+00,
35,6.80e+00,-4.00e-01,
36,7.00e+00,-4.00e-01,
37,6.80e+00,0.00e+00,
38,7.00e+00,-4.00e-01,
39,6.80e+00,0.00e+00,
40,7.00e+00,-4.00e-01,
41,6.80e+00,0.00e+00,
42,7.00e+00,0.00e+00,
43,6.80e+00,-4.00e-01,
44,7.00e+00,0.00e+00,
45,6.80e+00,-4.00e-01,
46,6.80e+00,-4.00e-01,
47,7.00e+00,0.00e+00,
48,7.00e+00,0.00e+00,
49,6.80e+00,-4.00e-01,
50,7.00e+00,-4.00e-01,
51,-2.00e-01,6.00e+00,
52,0.00e+00,5.60e+00,
53,-2.00e-01,6.00e+00,
54,0.00e+00,6.00e+00,
55,-2.00e-01,5.60e+00,
56,0.00e+00,5.60e+00,
57,-2.00e-01,6.00e+00,
58,0.00e+00,5.60e+00,
59,-2.00e-01,6.40e+00,
60,0.00e+00,5.60e+00,
61,-2.00e-01,6.40e+00,
62,-2.00e-01,6.40e+00,
63,0.00e+00,6.00e+00,
64,0.00e+00,6.40e+00,
65,-2.00e-01,6.00e+00,
66,0.00e+00,6.40e+00,
67,-2.00e-01,6.00e+00,
68,0.00e+00,6.40e+00,
69,-2.00e-01,6.00e+00,
70,0.00e+00,6.40e+00,
71,-2.00e-01,6.00e+00,
72,0.00e+00,6.40e+00,
73,-2.00e-01,6.00e+00,
74,0.00e+00,6.40e+00,
75,-2.00e-01,6.00e+00,
76,0.00e+00,6.40e+00,
77,-2.00e-01,6.00e+00,
78,0.00e+00,6.40e+00,
79,-2.00e-01,6.00e+00,
80,0.00e+00,6.40e+00,
81,-2.00e-01,6.00e+00,
82,0.00e+00,6.40e+00,
83,-2.00e-01,6.00e+00,
84,-2.00e-01,6.40e+00,
85,0.00e+00,6.00e+00,
86,0.00e+00,6.00e+00,
87,-2.00e-01,6.40e+00,
88,0.00e+00,6.40e+00,
89,-2.00e-01,6.00e+00,
90,0.00e+00,6.40e+00,
91,-2.00e-01,6.00e+00,
92,0.00e+00,6.40e+00,
93,-2.00e-01,6.00e+00,
94,0.00e+00,6.40e+00,
95,-2.00e-01,6.00e+00,
96,0.00e+00,6.40e+00,
97,-2.00e-01,6.00e+00,
98,0.00e+00,6.40e+00,
99,-2.00e-01,6.00e+00,
100,-2.00e-01,6.40e+00,
101,0.00e+00,6.00e+00,
102,0.00e+00,6.40e+00,
103,-2.00e-01,6.00e+00,
104,0.00e+00,6.40e+00,
105,-2.00e-01,6.00e+00,
106,0.00e+00,6.00e+00,
107,-2.00e-01,6.40e+00,
108,-2.00e-01,6.00e+00,
109,0.00e+00,6.40e+00,
110,0.00e+00,6.00e+00,
111,-2.00e-01,6.40e+00,
112,0.00e+00,6.40e+00,
113,-2.00e-01,6.00e+00,
114,0.00e+00,6.40e+00,
115,-2.00e-01,6.00e+00,
116,0.00e+00,6.40e+00,
117,-2.00e-01,6.00e+00,
118,-2.00e-01,6.40e+00,
119,0.00e+00,6.00e+00,
120,-2.00e-01,6.00e+00,
121,4.00e-01,7.20e+00,
122,0.00e+00,6.40e+00,
123,6.00e-01,8.80e+00,
124,6.00e-01,4.80e+00,
125,2.00e-01,8.80e+00,
126,2.00e-01,8.00e+00,
127,6.40e+00,5.60e+00,
128,6.00e+00,7.60e+00,
129,6.40e+00,6.40e+00,
130,6.40e+00,6.80e+00,
131,6.20e+00,6.40e+00,
132,6.20e+00,6.80e+00,
133,6.60e+00,6.40e+00,
134,6.40e+00,6.80e+00,
135,6.60e+00,6.80e+00,
136,6.40e+00,6.80e+00,
137,6.80e+00,6.80e+00,
138,6.80e+00,6.80e+00,
139,6.60e+00,6.80e+00,
140,6.80e+00,6.80e+00,
141,6.60e+00,6.80e+00,
142,6.80e+00,6.80e+00,
143,6.60e+00,6.80e+00,
144,6.60e+00,6.80e+00,
145,7.00e+00,6.80e+00,
146,7.00e+00,6.80e+00,
147,6.80e+00,6.80e+00,
148,7.00e+00,6.80e+00,
149,6.80e+00,6.40e+00,
150,7.00e+00,6.80e+00,
151,6.80e+00,6.00e+00,
152,7.00e+00,6.80e+00,
153,6.80e+00,6.00e+00,
154,7.00e+00,6.80e+00,
155,6.80e+00,6.00e+00,
156,7.00e+00,6.80e+00,
157,6.80e+00,6.00e+00,
158,7.00e+00,6.80e+00,
159,6.80e+00,6.00e+00,
160,7.00e+00,6.00e+00,
161,6.80e+00,6.80e+00,
162,7.00e+00,6.00e+00,
163,6.80e+00,6.80e+00,
164,7.00e+00,6.40e+00,
165,6.80e+00,6.00e+00,
166,7.00e+00,6.00e+00,
167,6.80e+00,6.80e+00,
168,7.00e+00,6.00e+00,
169,6.80e+00,6.80e+00,
170,7.00e+00,6.00e+00,
171,6.80e+00,6.80e+00,
172,7.00e+00,6.00e+00,
173,6.80e+00,6.40e+00,
174,7.00e+00,6.40e+00,
175,6.80e+00,6.00e+00,
176,7.00e+00,6.40e+00,
177,6.80e+00,6.00e+00,
178,7.00e+00,6.40e+00,
179,6.80e+00,6.00e+00,
180,7.00e+00,6.40e+00,
181,6.80e+00,6.00e+00,
182,7.00e+00,6.40e+00,
183,6.80e+00,6.00e+00,
184,7.00e+00,6.40e+00,
185,6.80e+00,6.00e+00,
186,7.00e+00,6.40e+00,
187,6.80e+00,6.00e+00,
188,7.00e+00,6.40e+00,
189,6.80e+00,6.00e+00,
190,7.00e+00,6.40e+00,
191,6.80e+00,6.00e+00,
192,7.00e+00,6.00e+00,
193,6.80e+00,6.40e+00,
194,7.00e+00,6.00e+00,
195,6.80e+00,6.40e+00,
196,7.00e+00,6.40e+00,
197,6.80e+00,6.00e+00,
198,7.00e+00,6.00e+00,
199,6.80e+00,6.80e+00,
200,7.00e+00,6.00e+00,
201,6.80e+00,6.40e+00,
202,7.00e+00,6.40e+00,
203,6.80e+00,6.00e+00,
204,7.00e+00,6.40e+00,
205,6.80e+00,6.00e+00,
206,7.00e+00,6.00e+00,
207,6.80e+00,6.40e+00,
208,7.00e+00,6.40e+00,
209,6.80e+00,6.00e+00,
210,7.00e+00,6.40e+00,
211,6.80e+00,6.00e+00,
212,7.00e+00,6.40e+00,
213,6.80e+00,-4.00e-01,
214,7.00e+00,0.00e+00,
215,6.80e+00,-4.00e-01,
216,7.00e+00,0.00e+00,
217,6.80e+00,-4.00e-01,
218,7.00e+00,0.00e+00,
219,6.80e+00,-4.00e-01,
220,7.00e+00,-4.00e-01,
221,6.80e+00,0.00e+00,
222,7.00e+00,0.00e+00,
223,6.80e+00,-4.00e-01,
224,7.00e+00,-4.00e-01,
225,6.80e+00,0.00e+00,
226,7.00e+00,0.00e+00,
227,6.80e+00,-4.00e-01,
228,7.00e+00,-4.00e-01,
229,6.80e+00,0.00e+00,
230,7.00e+00,0.00e+00,
231,6.80e+00,-4.00e-01,
232,7.00e+00,-4.00e-01,
233,6.80e+00,0.00e+00,
234,7.00e+00,0.00e+00,
235,6.80e+00,-4.00e-01,
236,6.80e+00,0.00e+00,
237,7.00e+00,-4.00e-01,
238,7.00e+00,-4.00e-01,
239,6.80e+00,0.00e+00,
240,6.80e+00,0.00e+00,
241,7.00e+00,-4.00e-01,
242,7.00e+00,-4.00e-01,
243,6.80e+00,0.00e+00,
244,7.00e+00,-4.00e-01,
245,-2.00e-01,6.00e+00,
246,0.00e+00,5.60e+00,
247,-2.00e-01,6.00e+00,
248,0.00e+00,6.00e+00,
249,-2.00e-01,5.60e+00,
250,0.00e+00,6.00e+00,
251,-2.00e-01,5.60e+00,
252,0.00e+00,5.60e+00,
253,-2.00e-01,6.00e+00,
254,0.00e+00,5.60e+00,
255,-2.00e-01,6.40e+00,
256,0.00e+00,6.40e+00,
257,-2.00e-01,6.00e+00,
258,0.00e+00,6.40e+00,
259,-2.00e-01,6.00e+00,
260,0.00e+00,6.40e+00,
261,-2.00e-01,6.00e+00,
262,0.00e+00,6.40e+00,
263,-2.00e-01,6.00e+00,
264,-2.00e-01,6.00e+00,
265,0.00e+00,6.40e+00,
266,0.00e+00,6.40e+00,
267,-2.00e-01,6.00e+00,
268,0.00e+00,6.40e+00,
269,-2.00e-01,6.00e+00,
270,0.00e+00,6.40e+00,
271,-2.00e-01,6.00e+00,
272,0.00e+00,6.40e+00,
273,-2.00e-01,6.00e+00,
274,0.00e+00,6.40e+00,
275,-2.00e-01,6.00e+00,
276,-2.00e-01,6.00e+00,
277,0.00e+00,6.40e+00,
278,-2.00e-01,6.00e+00,
279,0.00e+00,6.40e+00,
280,0.00e+00,6.40e+00,
281,-2.00e-01,6.00e+00,
282,0.00e+00,6.00e+00,
283,-2.00e-01,6.40e+00,
284,0.00e+00,6.40e+00,
285,-2.00e-01,6.00e+00,
286,0.00e+00,6.00e+00,
287,-2.00e-01,6.40e+00,
288,-2.00e-01,6.00e+00,
289,0.00e+00,6.40e+00,
290,0.00e+00,6.40e+00,
291,-2.00e-01,6.00e+00,
292,0.00e+00,6.40e+00,
293,-2.00e-01,6.00e+00,
294,0.00e+00,6.40e+00,
295,-2.00e-01,6.00e+00,
296,0.00e+00,6.40e+00,
297,-2.00e-01,6.00e+00,
298,-2.00e-01,6.40e+00,
299,0.00e+00,6.00e+00,
300,-2.00e-01,6.40e+00,
301,0.00e+00,6.00e+00,
302,0.00e+00,6.40e+00,
303,-2.00e-01,6.00e+00,
304,-2.00e-01,6.00e+00,
305,0.00e+00,6.40e+00,
306,-2.00e-01,6.40e+00,
307,0.00e+00,6.00e+00,
308,0.00e+00,6.00e+00,
309,-2.00e-01,6.40e+00,
310,-2.00e-01,6.40e+00,
311,0.00e+00,6.00e+00,
312,0.00e+00,6.00e+00,
313,-2.00e-01,6.40e+00,
314,-2.00e-01,6.00e+00,
315,0.00e+00,6.40e+00,
316,-2.00e-01,6.00e+00,
317,6.00e-01,8.80e+00,
318,6.00e-01,5.60e+00,
319,2.00e-01,8.80e+00,
320,2.00e-01,6.00e+00,
321,6.40e+00,8.00e+00,
322,6.40e+00,7.60e+00,
323,6.00e+00,6.40e+00,
324,6.40e+00,6.80e+00,
325,6.00e+00,6.40e+00,
326,6.40e+00,6.80e+00,
327,6.20e+00,6.80e+00,
328,6.20e+00,6.80e+00,
329,6.60e+00,6.80e+00,
330,6.40e+00,6.80e+00,
331,6.80e+00,6.80e+00,
332,6.80e+00,6.80e+00,
333,6.60e+00,6.80e+00,
334,6.80e+00,6.80e+00,
335,6.60e+00,6.80e+00,
336,6.80e+00,6.80e+00,
337,6.60e+00,6.80e+00,
338,6.60e+00,6.80e+00,
339,7.00e+00,6.80e+00,
340,7.00e+00,6.80e+00,
341,6.80e+00,6.40e+00,
342,7.00e+00,6.80e+00,
343,6.80e+00,6.40e+00,
344,7.00e+00,6.80e+00,
345,6.80e+00,6.00e+00,
346,7.00e+00,6.80e+00,
347,6.80e+00,6.00e+00,
348,7.00e+00,6.80e+00,
349,6.80e+00,6.00e+00,
350,7.00e+00,6.80e+00,
351,6.80e+00,6.00e+00,
352,7.00e+00,6.80e+00,
353,6.80e+00,6.00e+00,
354,7.00e+00,6.40e+00,
355,6.80e+00,6.00e+00,
356,7.00e+00,6.00e+00,
357,6.80e+00,6.80e+00,
358,7.00e+00,6.00e+00,
359,6.80e+00,6.40e+00,
360,7.00e+00,6.00e+00,
361,6.80e+00,6.80e+00,
362,7.00e+00,6.40e+00,
363,6.80e+00,6.00e+00,
364,7.00e+00,6.40e+00,
365,6.80e+00,6.00e+00,
366,7.00e+00,6.00e+00,
367,6.80e+00,6.40e+00,
368,7.00e+00,6.40e+00,
369,6.80e+00,6.00e+00,
370,6.80e+00,6.00e+00,
371,7.00e+00,6.80e+00,
372,7.00e+00,6.00e+00,
373,6.80e+00,6.80e+00,
374,7.00e+00,6.00e+00,
375,6.80e+00,6.40e+00,
376,7.00e+00,6.40e+00,
377,6.80e+00,6.00e+00,
378,6.80e+00,6.40e+00,
379,7.00e+00,6.00e+00,
380,7.00e+00,6.00e+00,
381,6.80e+00,6.40e+00,
382,7.00e+00,6.40e+00,
383,6.80e+00,6.00e+00,
384,7.00e+00,6.40e+00,
385,6.80e+00,6.00e+00,
386,7.00e+00,6.40e+00,
387,6.80e+00,6.00e+00,
388,7.00e+00,6.00e+00,
389,6.80e+00,6.40e+00,
390,7.00e+00,6.40e+00,
391,6.80e+00,6.00e+00,
392,6.80e+00,6.00e+00,
393,7.00e+00,6.80e+00,
394,7.00e+00,6.40e+00,
395,6.80e+00,6.00e+00,
396,7.00e+00,6.40e+00,
397,6.80e+00,6.00e+00,
398,7.00e+00,6.40e+00,
399,6.80e+00,6.00e+00,
400,7.00e+00,6.00e+00,
401,6.80e+00,6.80e+00,
402,7.00e+00,6.40e+00,
403,6.80e+00,6.00e+00,
404,7.00e+00,6.40e+00,
405,6.80e+00,6.00e+00,
406,7.00e+00,6.40e+00,
407,6.80e+00,6.00e+00,
408,6.80e+00,6.40e+00,
409,7.00e+00,-4.00e-01,
410,7.00e+00,0.00e+00,
411,6.80e+00,-4.00e-01,
412,7.00e+00,0.00e+00,
413,6.80e+00,-4.00e-01,
414,6.80e+00,0.00e+00,
415,7.00e+00,-4.00e-01,
416,7.00e+00,-4.00e-01,
417,6.80e+00,0.00e+00,
418,7.00e+00,0.00e+00,
419,6.80e+00,-4.00e-01,
420,7.00e+00,-4.00e-01,
421,6.80e+00,0.00e+00,
422,7.00e+00,-4.00e-01,
423,6.80e+00,0.00e+00,
424,7.00e+00,0.00e+00,
425,6.80e+00,-4.00e-01,
426,7.00e+00,0.00e+00,
427,6.80e+00,-4.00e-01,
428,7.00e+00,0.00e+00,
429,6.80e+00,-4.00e-01,
430,7.00e+00,0.00e+00,
431,6.80e+00,-4.00e-01,
432,7.00e+00,0.00e+00,
433,6.80e+00,-4.00e-01,
434,7.00e+00,0.00e+00,
435,6.80e+00,-4.00e-01,
436,7.00e+00,0.00e+00,
437,6.80e+00,-4.00e-01,
438,7.00e+00,-4.00e-01,
439,-2.00e-01,6.00e+00,
440,0.00e+00,5.60e+00,
441,-2.00e-01,6.00e+00,
442,0.00e+00,6.00e+00,
443,-2.00e-01,5.60e+00,
444,0.00e+00,6.00e+00,
445,-2.00e-01,5.60e+00,
446,0.00e+00,5.60e+00,
447,-2.00e-01,6.00e+00,
448,0.00e+00,5.60e+00,
449,-2.00e-01,6.40e+00,
450,-2.00e-01,6.00e+00,
451,0.00e+00,6.40e+00,
452,-2.00e-01,6.40e+00,
453,0.00e+00,6.00e+00,
454,0.00e+00,6.40e+00,
455,-2.00e-01,6.00e+00,
456,0.00e+00,6.40e+00,
457,-2.00e-01,6.00e+00,
458,-2.00e-01,6.00e+00,
459,0.00e+00,6.40e+00,
460,0.00e+00,6.40e+00,
461,-2.00e-01,6.00e+00,
462,0.00e+00,6.40e+00,
463,-2.00e-01,6.00e+00,
464,-2.00e-01,6.40e+00,
465,0.00e+00,6.00e+00,
466,0.00e+00,6.00e+00,
467,-2.00e-01,6.40e+00,
468,0.00e+00,6.40e+00,
469,-2.00e-01,6.00e+00,
470,0.00e+00,6.40e+00,
471,-2.00e-01,6.00e+00,
472,0.00e+00,6.40e+00,
473,-2.00e-01,6.00e+00,
474,0.00e+00,6.40e+00,
475,-2.00e-01,6.00e+00,
476,0.00e+00,6.40e+00,
477,-2.00e-01,6.00e+00,
478,0.00e+00,6.40e+00,
479,-2.00e-01,6.00e+00,
480,0.00e+00,6.40e+00,
481,-2.00e-01,6.00e+00,
482,-2.00e-01,6.00e+00,
483,0.00e+00,6.40e+00,
484,0.00e+00,6.40e+00,
485,-2.00e-01,6.00e+00,
486,0.00e+00,6.40e+00,
487,-2.00e-01,6.00e+00,
488,-2.00e-01,6.40e+00,
489,0.00e+00,6.00e+00,
490,0.00e+00,6.40e+00,
491,-2.00e-01,6.00e+00,
492,0.00e+00,6.40e+00,
493,-2.00e-01,6.00e+00,
494,0.00e+00,6.40e+00,
495,-2.00e-01,6.00e+00,
496,-2.00e-01,6.00e+00,
497,0.00e+00,6.40e+00,
498,0.00e+00,6.00e+00,
499,-2.00e-01,6.40e+00,
500,-2.00e-01,6.00e+00,
501,0.00e+00,6.40e+00,
502,0.00e+00,6.40e+00,
503,-2.00e-01,6.00e+00,
504,-2.00e-01,6.00e+00,
505,0.00e+00,6.40e+00,
506,0.00e+00,6.00e+00,
507,-2.00e-01,6.40e+00,
508,-2.00e-01,6.00e+00,
509,4.00e-01,6.80e+00,
510,2.00e-01,6.00e+00,
511,6.00e-01,8.80e+00,
512,6.00e-01,5.20e+00,
513,2.00e-01,8.80e+00,
514,2.00e-01,6.40e+00,
515,6.40e+00,8.80e+00,
516,6.00e+00,7.60e+00,
517,6.40e+00,6.80e+00,
518,6.40e+00,6.80e+00,
519,6.20e+00,6.40e+00,
520,6.40e+00,6.80e+00,
521,6.20e+00,6.40e+00,
522,6.20e+00,6.80e+00,
523,6.60e+00,6.80e+00,
524,6.40e+00,6.80e+00,
525,6.80e+00,6.80e+00,
526,6.80e+00,6.80e+00,
527,6.60e+00,6.80e+00,
528,6.80e+00,6.80e+00,
529,6.60e+00,6.80e+00,
530,6.80e+00,6.80e+00,
531,6.60e+00,6.80e+00,
532,7.00e+00,6.80e+00,
533,6.60e+00,6.80e+00,
534,7.00e+00,6.80e+00,
535,6.80e+00,6.80e+00,
536,7.00e+00,6.80e+00,
537,6.80e+00,6.40e+00,
538,7.00e+00,6.80e+00,
539,6.80e+00,6.00e+00,
540,7.00e+00,6.80e+00,
541,6.80e+00,6.00e+00,
542,7.00e+00,6.80e+00,
543,6.80e+00,6.00e+00,
544,7.00e+00,6.80e+00,
545,6.80e+00,6.00e+00,
546,7.00e+00,6.80e+00,
547,6.80e+00,6.00e+00,
548,7.00e+00,6.80e+00,
549,6.80e+00,6.00e+00,
550,7.00e+00,6.00e+00,
551,6.80e+00,6.80e+00,
552,7.00e+00,6.40e+00,
553,6.80e+00,6.00e+00,
554,7.00e+00,6.40e+00,
555,6.80e+00,6.00e+00,
556,7.00e+00,6.00e+00,
557,6.80e+00,6.40e+00,
558,7.00e+00,6.00e+00,
559,6.80e+00,6.80e+00,
560,7.00e+00,6.40e+00,
561,6.80e+00,6.00e+00,
562,7.00e+00,6.00e+00,
563,6.80e+00,6.80e+00,
564,7.00e+00,6.40e+00,
565,6.80e+00,6.00e+00,
566,7.00e+00,6.00e+00,
567,6.80e+00,6.80e+00,
568,7.00e+00,6.00e+00,
569,6.80e+00,6.80e+00,
570,7.00e+00,6.40e+00,
571,6.80e+00,6.00e+00,
572,7.00e+00,6.40e+00,
573,6.80e+00,6.00e+00,
574,7.00e+00,6.40e+00,
575,6.80e+00,6.00e+00,
576,7.00e+00,6.40e+00,
577,6.80e+00,6.00e+00,
578,7.00e+00,6.00e+00,
579,6.80e+00,6.80e+00,
580,7.00e+00,6.40e+00,
581,6.80e+00,6.00e+00,
582,7.00e+00,6.40e+00,
583,6.80e+00,6.00e+00,
584,7.00e+00,6.80e+00,
585,6.80e+00,6.00e+00,
586,7.00e+00,6.40e+00,
587,6.80e+00,6.00e+00,
588,7.00e+00,6.40e+00,
589,6.80e+00,6.00e+00,
590,7.00e+00,6.40e+00,
591,6.80e+00,6.00e+00,
592,7.00e+00,6.40e+00,
593,6.80e+00,6.00e+00,
594,7.00e+00,6.40e+00,
595,6.80e+00,6.00e+00,
596,7.00e+00,6.40e+00,
597,6.80e+00,6.00e+00,
598,7.00e+00,6.00e+00,
599,6.80e+00,6.80e+00,
600,7.00e+00,6.40e+00,
601,6.80e+00,0.00e+00,
602,7.00e+00,0.00e+00,
603,6.80e+00,-4.00e-01,
604,7.00e+00,-4.00e-01,
605,6.80e+00,0.00e+00,
606,7.00e+00,0.00e+00,
607,6.80e+00,-4.00e-01,
608,7.00e+00,-4.00e-01,
609,6.80e+00,0.00e+00,
610,6.80e+00,-4.00e-01,
611,7.00e+00,0.00e+00,
612,7.00e+00,0.00e+00,
613,6.80e+00,-4.00e-01,
614,7.00e+00,-4.00e-01,
615,6.80e+00,0.00e+00,
616,7.00e+00,-4.00e-01,
617,6.80e+00,0.00e+00,
618,7.00e+00,0.00e+00,
619,6.80e+00,-4.00e-01,
620,7.00e+00,0.00e+00,
621,6.80e+00,-4.00e-01,
622,7.00e+00,0.00e+00,
623,6.80e+00,-4.00e-01,
624,6.80e+00,-4.00e-01,
625,7.00e+00,0.00e+00,
626,7.00e+00,-4.00e-01,
627,6.80e+00,0.00e+00,
628,7.00e+00,0.00e+00,
629,6.80e+00,-4.00e-01,
630,7.00e+00,-4.00e-01,
631,6.80e+00,0.00e+00,
632,7.00e+00,-4.00e-01,
633,-2.00e-01,6.00e+00,
634,0.00e+00,5.60e+00,
635,-2.00e-01,6.00e+00,
636,0.00e+00,5.60e+00,
637,-2.00e-01,6.00e+00,
638,-2.00e-01,6.00e+00,
639,0.00e+00,5.60e+00,
640,0.00e+00,5.60e+00,
641,-2.00e-01,6.40e+00,
642,0.00e+00,5.60e+00,
643,-2.00e-01,6.40e+00,
644,0.00e+00,6.40e+00,
645,-2.00e-01,6.00e+00,
646,-2.00e-01,6.40e+00,
647,0.00e+00,6.00e+00,
648,0.00e+00,6.40e+00,
649,-2.00e-01,6.00e+00,
650,0.00e+00,6.40e+00,
651,-2.00e-01,6.00e+00,
652,0.00e+00,6.40e+00,
653,-2.00e-01,6.00e+00,
654,0.00e+00,6.00e+00,
655,-2.00e-01,6.40e+00,
656,0.00e+00,6.40e+00,
657,-2.00e-01,6.00e+00,
658,-2.00e-01,6.40e+00,
659,0.00e+00,6.00e+00,
660,0.00e+00,6.40e+00,
661,-2.00e-01,6.00e+00,
662,0.00e+00,6.40e+00,
663,-2.00e-01,6.00e+00,
664,0.00e+00,6.40e+00,
665,-2.00e-01,6.00e+00,
666,0.00e+00,6.40e+00,
667,-2.00e-01,6.00e+00,
668,-2.00e-01,6.40e+00,
669,0.00e+00,6.00e+00,
670,-2.00e-01,6.40e+00,
671,0.00e+00,6.00e+00,
672,0.00e+00,6.40e+00,
673,-2.00e-01,6.00e+00,
674,0.00e+00,6.40e+00,
675,-2.00e-01,6.00e+00,
676,0.00e+00,6.00e+00,
677,-2.00e-01,6.40e+00,
678,0.00e+00,6.00e+00,
679,-2.00e-01,6.40e+00,
680,0.00e+00,6.40e+00,
681,-2.00e-01,6.00e+00,
682,0.00e+00,6.40e+00,
683,-2.00e-01,6.00e+00,
684,0.00e+00,6.40e+00,
685,-2.00e-01,6.00e+00,
686,0.00e+00,6.40e+00,
687,-2.00e-01,6.00e+00,
688,0.00e+00,6.00e+00,
689,-2.00e-01,6.40e+00,
690,0.00e+00,6.00e+00,
691,-2.00e-01,6.40e+00,
692,0.00e+00,6.40e+00,
693,-2.00e-01,6.00e+00,
694,0.00e+00,6.40e+00,
695,-2.00e-01,6.00e+00,
696,0.00e+00,6.40e+00,
697,-2.00e-01,6.00e+00,
698,-2.00e-01,6.40e+00,
699,0.00e+00,6.00e+00,
700,0.00e+00,6.40e+00,
701,-2.00e-01,6.00e+00,
702,-2.00e-01,6.00e+00,
703,4.00e-01,6.80e+00,
704,0.00e+00,8.40e+00,
705,6.00e-01,6.40e+00,
706,2.00e-01,8.40e+00,
707,6.00e-01,6.00e+00,
708,0.00e+00,5.60e+00,
709,6.40e+00,8.40e+00,
710,6.00e+00,7.60e+00,
711,6.40e+00,6.80e+00,
712,6.40e+00,6.80e+00,
713,6.20e+00,6.80e+00,
714,6.40e+00,6.80e+00,
715,6.20e+00,6.80e+00,
716,6.40e+00,6.80e+00,
717,6.60e+00,6.80e+00,
718,6.40e+00,6.80e+00,
719,6.80e+00,6.80e+00,
720,6.80e+00,6.80e+00,
721,6.60e+00,6.80e+00,
722,6.80e+00,6.80e+00,
723,6.60e+00,6.80e+00,
724,6.80e+00,6.80e+00,
725,6.60e+00,6.80e+00,
726,7.00e+00,6.80e+00,
727,6.60e+00,6.80e+00,
728,7.00e+00,6.80e+00,
729,6.80e+00,6.40e+00,
730,7.00e+00,6.80e+00,
731,6.80e+00,6.00e+00,
732,6.80e+00,6.80e+00,
733,7.00e+00,6.00e+00,
734,7.00e+00,6.80e+00,
735,6.80e+00,6.00e+00,
736,6.80e+00,6.80e+00,
737,7.00e+00,6.00e+00,
738,7.00e+00,6.80e+00,
739,6.80e+00,6.00e+00,
740,7.00e+00,6.00e+00,
741,6.80e+00,6.80e+00,
742,7.00e+00,6.80e+00,
743,6.80e+00,6.00e+00,
744,7.00e+00,6.00e+00,
745,6.80e+00,6.80e+00,
746,7.00e+00,6.40e+00,
747,6.80e+00,6.00e+00,
748,7.00e+00,6.00e+00,
749,6.80e+00,6.80e+00,
750,7.00e+00,6.40e+00,
751,6.80e+00,6.00e+00,
752,7.00e+00,6.00e+00,
753,6.80e+00,6.40e+00,
754,6.80e+00,6.40e+00,
755,7.00e+00,6.00e+00,
756,7.00e+00,6.40e+00,
757,6.80e+00,6.00e+00,
758,6.80e+00,6.00e+00,
759,7.00e+00,6.40e+00,
760,7.00e+00,6.40e+00,
761,6.80e+00,6.00e+00,
762,7.00e+00,6.40e+00,
763,6.80e+00,6.00e+00,
764,6.80e+00,6.40e+00,
765,7.00e+00,6.00e+00,
766,7.00e+00,6.40e+00,
767,6.80e+00,6.00e+00,
768,7.00e+00,6.40e+00,
769,6.80e+00,6.00e+00,
770,7.00e+00,6.40e+00,
771,6.80e+00,6.00e+00,
772,7.00e+00,6.40e+00,
773,6.80e+00,6.00e+00,
774,7.00e+00,6.40e+00,
775,6.80e+00,6.00e+00,
776,6.80e+00,6.40e+00,
777,7.00e+00,6.00e+00,
778,7.00e+00,6.40e+00,
779,6.80e+00,6.00e+00,
780,7.00e+00,6.00e+00,
781,6.80e+00,6.40e+00,
782,7.00e+00,6.40e+00,
783,6.80e+00,6.00e+00,
784,7.00e+00,6.40e+00,
785,6.80e+00,6.00e+00,
786,7.00e+00,6.40e+00,
787,6.80e+00,6.00e+00,
788,7.00e+00,6.40e+00,
789,6.80e+00,6.00e+00,
790,7.00e+00,6.40e+00,
791,6.80e+00,6.00e+00,
792,7.00e+00,6.00e+00,
793,6.80e+00,6.40e+00,
794,7.00e+00,6.40e+00,
795,6.80e+00,-4.00e-01,
796,7.00e+00,-4.00e-01,
797,6.80e+00,0.00e+00,
798,6.80e+00,0.00e+00,
799,7.00e+00,-4.00e-01,
800,7.00e+00,0.00e+00,
801,6.80e+00,-4.00e-01,
802,7.00e+00,0.00e+00,
803,6.80e+00,-4.00e-01,
804,7.00e+00,-4.00e-01,
805,6.80e+00,0.00e+00,
806,7.00e+00,0.00e+00,
807,6.80e+00,-4.00e-01,
808,7.00e+00,0.00e+00,
809,6.80e+00,-4.00e-01,
810,7.00e+00,-4.00e-01,
811,6.80e+00,0.00e+00,
812,7.00e+00,-4.00e-01,
813,6.80e+00,0.00e+00,
814,7.00e+00,-4.00e-01,
815,6.80e+00,0.00e+00,
816,7.00e+00,-4.00e-01,
817,6.80e+00,0.00e+00,
818,7.00e+00,0.00e+00,
819,6.80e+00,-4.00e-01,
820,6.80e+00,-4.00e-01,
821,7.00e+00,0.00e+00,
822,7.00e+00,-4.00e-01,
823,6.80e+00,0.00e+00,
824,7.00e+00,0.00e+00,
825,6.80e+00,-4.00e-01,
826,7.00e+00,-4.00e-01,
827,-2.00e-01,6.00e+00,
828,0.00e+00,6.00e+00,
829,-2.00e-01,5.60e+00,
830,0.00e+00,5.60e+00,
831,-2.00e-01,6.00e+00,
832,0.00e+00,6.00e+00,
833,-2.00e-01,5.60e+00,
834,0.00e+00,6.00e+00,
835,-2.00e-01,5.60e+00,
836,-2.00e-01,5.60e+00,
837,0.00e+00,6.40e+00,
838,0.00e+00,6.40e+00,
839,-2.00e-01,6.00e+00,
840,0.00e+00,6.40e+00,
841,-2.00e-01,6.00e+00,
842,0.00e+00,6.40e+00,
843,-2.00e-01,6.00e+00,
844,0.00e+00,6.40e+00,
845,-2.00e-01,6.00e+00,
846,0.00e+00,6.40e+00,
847,-2.00e-01,6.00e+00,
848,0.00e+00,6.40e+00,
849,-2.00e-01,6.00e+00,
850,0.00e+00,6.40e+00,
851,-2.00e-01,6.00e+00,
852,0.00e+00,6.40e+00,
853,-2.00e-01,6.00e+00,
854,0.00e+00,6.40e+00,
855,-2.00e-01,6.00e+00,
856,0.00e+00,6.40e+00,
857,-2.00e-01,6.00e+00,
858,-2.00e-01,6.40e+00,
859,0.00e+00,6.00e+00,
